<?xml version="1.0" encoding="utf-8"?>
<!-- Generator: Adobe Illustrator 16.0.0, SVG Export Plug-In . SVG Version: 6.00 Build 0)  -->
<!DOCTYPE svg PUBLIC "-//W3C//DTD SVG 1.1//EN" "http://www.w3.org/Graphics/SVG/1.1/DTD/svg11.dtd">
<svg version="1.1" id="Layer_1" xmlns="http://www.w3.org/2000/svg" xmlns:xlink="http://www.w3.org/1999/xlink" x="0px" y="0px"
	 width="148px" height="108px" viewBox="0 0 148 108" enable-background="new 0 0 148 108" xml:space="preserve">
<g>
	<path fill-rule="evenodd" clip-rule="evenodd" fill="#F29D07" d="M89.682,90.575c-1.549-13.091-28.656-12.877-30.546-0.255
		c-11.945-2.306-21.449-5.735-29.645-11.73C22.016,73.12,13.809,64.626,14.54,52.168C15.302,39.188,25.093,30.482,34,25.361
		c9.914-5.697,22.207-9.373,36.605-10.053c15.255-0.722,28.434,2.204,39.44,6.96c10.434,4.51,20.063,11.865,24.1,22.554
		c5.365,14.213-3.752,26.058-11.342,32.221C114.036,84.167,103.021,88.172,89.682,90.575z"/>
	<path fill-rule="evenodd" clip-rule="evenodd" fill="#795015" d="M53.864,98.654c2.156,1.984,7.544,1.314,9.238-1.024
		c-0.671-0.956-1.666-1.585-2.31-2.568c-11.663-1.931-22.298-5.217-30.659-10.647c-8.209-5.331-15.574-12.119-18.605-22.582
		c-0.712,0.215-0.835,0.917-1.408,1.416c-2.08,1.789-5.53,2.815-5.132,7.183c0.054,0.594,0.223,0.861,0.384,1.538
		c-1.3-1.523-2.396-3.843-1.155-5.386c1.217-1.512,6.521-3.246,6.928-5.518c0.227-1.268-0.772-2.655-0.898-4.232
		c-1.334-2.66-8.011-2.836-7.825,0.768c0.075,1.449,1.314,2.026,2.565,2.567c0.602-0.127,0.682-0.773,0.641-1.541
		c1.755,0.722,0.707,2.975-0.641,3.205c-1.638,0.286-3.279-1.21-3.464-2.82c-0.26-2.272,1.611-3.928,2.823-4.875
		c-2.922-1.423-4.237-9.264,1.539-8.081c1.326,0.453,1.653,3.164-0.257,3.209c0.249-0.38,0.44-1.35,0-1.669
		c-1.61,0.157-3.092,0.686-3.333,1.924c-0.714,3.652,5.724,4.703,7.825,2.309c-0.141-2.281,0.964-3.15,0.769-4.875
		c-0.256-2.26-4.146-4.021-4.489-6.158c-0.325-2.022,1.495-3.059,2.564-4.361c0.006,0.68-0.708,1.227-0.897,1.924
		c-0.875,3.229,1.551,5.885,2.95,7.569c3.126-10.957,10.608-17.906,19.117-23.476c8.593-5.627,19.497-9.093,31.685-10.905
		c-1.898-2.421-7.52-2.64-9.749-0.384c1.451-1.533,2.84-3.799,5.26-3.722c2.587,0.083,3.684,2.948,5.643,3.977
		c3.128-0.594,6.848-0.594,10.262-0.898c1.986-3.096,0.04-8.54-3.336-8.468c-1.835,0.042-3.224,2.229-2.949,4.491
		c0.405,0.523,1.556,0.173,2.051,0c-0.193,2.433-3.417,1.938-4.359,0.514c-1.462-7.68,8.729-6.331,10.646-2.181
		c1.375-1.708,3.177-3.899,6.159-3.721c2.228,0.134,4.261,2.109,3.973,4.363c-0.245,1.944-3.354,3.296-4.358,0.896
		c0.995,0.057,1.923,0.046,2.178-0.642c-0.555-1.575-1.48-3.239-3.074-3.462c-3.767-0.529-5.122,5.619-2.825,8.209
		c1.999,0.239,3.848,0.2,6.028,0.386c1.078,0.091,2.668,0.585,3.466,0.385c0.957-0.244,1.943-2.347,2.564-3.335
		c0.989-1.577,1.847-3.651,3.591-3.979c2.172-0.406,3.878,0.979,5.774,2.054c-5.086-1.525-9.026,1.817-10.777,5.26
		c23.527,4.141,42.651,12.683,50.544,32.455c1.829-1.155,2.09-5.687,0.385-7.184c1.167,0.789,3.102,2.197,2.696,4.363
		c-0.288,1.531-2.167,2.316-2.822,3.59c0.579,2.711,1.423,5.163,1.409,8.468c5.217,1.784,7.845-5.659,2.181-5.259
		c-0.513,0.323-0.102,1.087,0,1.541c-2.866-0.906-0.596-4.239,2.053-3.209c3.123,1.213,1.736,6.81-0.768,8.081
		c1.357,1.043,2.998,2.501,2.82,4.747c-0.13,1.652-1.655,3.177-3.336,2.949c-1.262-0.166-2.467-2.204-0.897-3.205
		c0.401,0.167-0.021,1.326,0.642,1.541c1.258-0.329,2.482-1.1,2.694-2.182c0.492-2.529-2.962-3.915-5.389-2.823
		c-0.209,1.797-0.473,3.067-0.896,4.876c-0.174,0.747-0.788,2.171-0.642,2.82c0.352,1.579,5.141,2.469,5.644,4.621
		c0.36,1.534-0.542,2.862-1.411,4.36c0.929-3.902-1.61-6.918-4.491-8.207c-7.802,17.718-24.548,27.036-46.053,30.913
		c-1.298,0.235-3.242,0.297-4.231,0.771c-0.935,0.446-1.19,1.683-2.311,2.182c1.34,3.086,5.114,6.497,9.493,4.489
		c-1.048,1.029-3.24,2.594-5.388,1.923c-2.417-0.751-2.898-4.62-4.746-5.9c-2.644,1.507-5.728,2.57-9.622,2.823
		c-0.689,5.097,5.376,6.336,6.028,1.54c-0.212-0.528-1.396-0.435-1.794-0.386c0.588-2.11,3.576-1.009,3.849,0.642
		c0.27,1.638-1.117,3.299-2.44,3.72c-3.013,0.964-6.028-1.665-6.797-3.976c-0.545,3.103-6.727,6.326-9.239,3.207
		c-0.539-0.673-0.905-2.178-0.64-3.463c0.765-1.168,3.612-1.836,3.72,0.383c-0.39-0.257-1.458-0.444-1.797,0
		c-0.025,1.523,0.684,3.445,2.055,3.723c2.575,0.519,4.219-2.434,4.104-5.258c-3.131-0.805-6.572-1.297-8.723-3.083
		c-1.855,0.666-2.853,3.171-4.747,3.72C56.668,102.318,55.312,100.004,53.864,98.654z M122.625,76.847
		c7.554-6.138,16.63-17.927,11.288-32.072c-4.014-10.642-13.6-17.961-23.987-22.45c-10.954-4.735-24.071-7.646-39.255-6.928
		c-14.333,0.678-26.568,4.335-36.433,10.006C25.37,30.5,15.625,39.166,14.866,52.087c-0.727,12.397,7.442,20.855,14.882,26.298
		c8.157,5.966,17.616,9.38,29.504,11.674c4.248-11.462,27.544-10.83,30.404,0.255C102.938,87.92,113.9,83.932,122.625,76.847z
		 M9.607,54.268c0.24-0.03,0.282,0.144,0.513,0.125c-0.079-0.263,0.205-0.888-0.257-0.768C9.809,53.871,9.496,53.857,9.607,54.268z
		 M60.921,88.262c-0.549,1.359-0.519,2.495-0.384,3.464c0.71,5.165,7.767,8.125,14.112,8.083c4.745-0.031,9.643-1.738,12.057-4.491
		c1.461-1.666,2.397-4.583,1.282-7.183c-1.9-4.427-8.625-6.832-15.266-6.289C67.188,82.303,62.382,84.661,60.921,88.262z"/>
	<path fill="#795015" d="M23.25,41.64c8.686,0,17.371,0,26.057,0c0.028,0,0.099-1.289,0.099-1.423c0-0.776,0-1.551,0-2.327
		c-0.032,0.475-0.065,0.952-0.099,1.424c0.939,0,1.874,0,2.812,0c0.025,0,0.096-1.29,0.096-1.424c0-0.742,0-1.484,0-2.227
		c-0.034,0.476-0.065,0.95-0.096,1.424c1.065,0,2.13,0,3.195,0c0.028,0,0.096-1.289,0.096-1.424c0-0.742,0-1.486,0-2.227
		c-0.031,0.473-0.064,0.948-0.096,1.423c1.099,0,2.196,0,3.294,0c0.026,0,0.097-1.29,0.097-1.423c0-0.841,0-1.68,0-2.519
		c-0.033,0.474-0.065,0.948-0.097,1.423c0.807,0,1.613,0,2.421,0c0.026,0,0.097-1.291,0.097-1.423c0-0.744,0-1.487,0-2.229
		c-0.031,0.474-0.064,0.948-0.097,1.421c0.395,0,3.292,0.226,3.394-0.003c0.294-0.667,0.827-1.247,1.342-1.747
		c3.35-3.243,9.124-3.553,13.392-2.489c2.614,0.654,5.327,2.334,6.532,4.832c0.185,0.38,2.97,0.088,3.434,0.088
		c0.655,0,0.964-0.22,0.964,0.473c0,0.673,0,1.347,0,2.02c0,0.009,0,0.017,0,0.026c0.794,0,1.588,0,2.382,0
		c0.289,0,0.141,1.771,0.141,2.104c0,0.009,0,0.017,0,0.026c0.906,0,1.815,0,2.725,0c0.561,0,0.278,1.701,0.278,2.203
		c0,0.01,0,0.017,0,0.025c0.905,0,1.816,0,2.726,0c0.557,0,0.278,1.525,0.278,2.008c0,0.009,0,0.02,0,0.027c0.907,0,1.817,0,2.723,0
		c0.565,0,0.276,1.79,0.276,2.299c0,0.009,0,0.016,0,0.026c7.654,0,15.307,0,22.959,0c0.042,0,0.076-1.449,0.097-1.449
		c-4.354,0-8.71,0-13.064,0c-2.61,0-5.222,0-7.829,0c-0.632,0-1.263,0-1.895,0c-0.388,0-0.17-1.899-0.17-2.299
		c0-0.009,0-0.016,0-0.026c-0.91,0-1.819,0-2.727,0c-0.557,0-0.275-1.525-0.275-2.008c0-0.008,0-0.018,0-0.028
		c-0.911,0-1.818,0-2.728,0c-0.559,0-0.277-1.698-0.277-2.2c0-0.009,0-0.019,0-0.027c-0.91,0-1.817,0-2.727,0
		c-0.558,0-0.275-1.613-0.275-2.104c0-0.01,0-0.017,0-0.027c-0.828,0-1.654,0-2.482,0c-0.074,0-0.037-2.227-0.037-2.492
		c0-0.01,0-0.017,0-0.025c-1.278,0-2.555,0-3.83,0c-0.716,0-0.603-0.227-0.991-0.82c-1.854-2.838-5.226-4.153-8.468-4.518
		c-3.872-0.435-8.462,0.287-11.306,3.173c-0.419,0.425-0.824,0.933-1.074,1.48c-0.107,0.235-2.991,0.005-3.393,0.005
		c-0.026,0-0.097,1.29-0.097,1.425c0,0.741,0,1.484,0,2.228c0.033-0.477,0.064-0.952,0.097-1.425c-0.808,0-1.616,0-2.421,0
		c-0.027,0-0.097,1.29-0.097,1.425c0,0.837,0,1.678,0,2.516c0.032-0.474,0.064-0.948,0.097-1.422c-1.1,0-2.197,0-3.295,0
		c-0.025,0-0.096,1.289-0.096,1.422c0,0.744,0,1.486,0,2.229c0.032-0.475,0.065-0.95,0.096-1.424c-1.063,0-2.13,0-3.195,0
		c-0.024,0-0.096,1.291-0.096,1.424c0,0.743,0,1.486,0,2.227c0.031-0.473,0.062-0.948,0.096-1.423c-0.936,0-1.874,0-2.809,0
		c-0.027,0-0.099,1.289-0.099,1.423c0,0.775,0,1.551,0,2.327c0.034-0.476,0.067-0.951,0.099-1.425c-8.685,0-17.373,0-26.058,0
		C23.304,40.19,23.271,41.64,23.25,41.64L23.25,41.64z"/>
	<path fill="#795015" d="M79.314,43.604h-8.186l0.004-7.375c0.007-0.03,0.557-3.039,4.137-3.039c3.584,0,4.038,2.772,4.042,2.801
		l0.002,0.032V43.604L79.314,43.604z M71.566,43.167h7.311V36.04c-0.036-0.218-0.5-2.413-3.607-2.413s-3.656,2.409-3.704,2.66
		V43.167L71.566,43.167z"/>
	<path fill="#795015" d="M77.056,37.064c0,0,0.418-2.035-1.725-2.035c-2.144,0-2.088,1.035-2.088,2.416
		c0,1.379-0.418,2.144-1.18,2.779c-0.738,0.614,0.217,1.364,2.903,1.508c3.341,0.182,3.979-0.605,2.907-1.852
		C76.875,38.719,77.056,37.064,77.056,37.064z"/>
	<ellipse fill="#795015" cx="75.104" cy="41.615" rx="0.337" ry="0.499"/>
	<polygon fill="#795015" points="78.999,35.593 71.57,35.576 71.989,34.757 78.545,34.757 	"/>
	<rect x="35.988" y="49.633" fill="#795015" width="2.907" height="4.069"/>
	<rect x="42.675" y="49.633" fill="#795015" width="2.903" height="4.069"/>
	<rect x="49.865" y="49.633" fill="#795015" width="2.908" height="4.069"/>
	<rect x="56.767" y="49.633" fill="#795015" width="2.908" height="4.069"/>
	<rect x="63.889" y="49.633" fill="#795015" width="2.905" height="4.069"/>
	<rect x="70.646" y="49.633" fill="#795015" width="2.903" height="4.069"/>
	<rect x="77.763" y="49.633" fill="#795015" width="2.906" height="4.069"/>
	<rect x="84.594" y="49.633" fill="#795015" width="2.905" height="4.069"/>
	<rect x="90.77" y="49.633" fill="#795015" width="2.906" height="4.069"/>
	<rect x="97.671" y="49.633" fill="#795015" width="2.907" height="4.069"/>
	<rect x="104.792" y="49.633" fill="#795015" width="2.904" height="4.069"/>
	<rect x="111.766" y="49.633" fill="#795015" width="2.906" height="4.069"/>
	<polygon fill="#795015" points="44.271,79.855 43.4,79.855 43.4,69.325 39.622,66.564 39.622,61.405 22.911,61.405 22.911,60.532 
		40.495,60.532 40.495,66.122 44.271,68.883 44.271,79.855 	"/>
	<polygon fill="#795015" points="108.205,79.855 107.333,79.855 107.333,68.883 111.114,66.122 111.114,60.532 128.694,60.532 
		128.694,61.405 111.985,61.405 111.985,66.564 108.205,69.325 108.205,79.855 	"/>
	<path fill="#795015" d="M49.938,82.181h-0.871V68.505l3.85-2.541V60.24h5.612c0.772-0.869,4.649-4.794,11.754-4.794v0.871
		c-7.385,0-11.177,4.585-11.215,4.633l-0.129,0.162h-5.15v5.321l-3.851,2.542V82.181L49.938,82.181z"/>
	<path fill="#795015" d="M102.757,81.528h-0.872V69.052l-3.924-2.543v-5.25h-8.756l-0.09-0.316
		c-0.054-0.186-1.412-4.553-8.591-4.553V55.52c6.814,0,8.854,3.73,9.316,4.866h8.993v5.649l3.924,2.54V81.528L102.757,81.528z"/>
	<circle fill="#FFC83B" cx="106.79" cy="29.398" r="6.067"/>
	<ellipse fill="none" stroke="#FFFFFF" stroke-width="3.6998" cx="74.738" cy="53.412" rx="55.023" ry="34.778"/>
	<ellipse fill="#F29D07" stroke="#FFFFFF" stroke-width="1.2028" cx="74.341" cy="90.863" rx="13.667" ry="8.48"/>
	<path fill="#795015" d="M74.368,101.051c-8.489,0-15.398-4.569-15.398-10.188c0-5.614,6.909-10.184,15.398-10.184
		c8.49,0,15.399,4.569,15.399,10.184C89.767,96.481,82.858,101.051,74.368,101.051L74.368,101.051z M74.368,82.384
		c-7.551,0-13.694,3.804-13.694,8.479c0,4.677,6.143,8.48,13.694,8.48c7.551,0,13.695-3.803,13.695-8.48
		C88.062,86.188,81.918,82.384,74.368,82.384L74.368,82.384z"/>
	<ellipse fill-rule="evenodd" clip-rule="evenodd" fill="#F29D07" cx="73.431" cy="51.497" rx="1.599" ry="0.896"/>
	<ellipse fill-rule="evenodd" clip-rule="evenodd" fill="#F29D07" cx="77.353" cy="51.497" rx="1.598" ry="0.896"/>
	<path fill-rule="evenodd" clip-rule="evenodd" fill="#795015" d="M71.443,57.552c-1.815-0.907-1.616-1.646-1.616-1.646
		c0.36-1.255,1.958-1.802,3.343-1.287c0.891,0.027,0.807-1.098,0.746-1.716c-0.069,0.82-6.068-3.308,0.025-2.654
		c0.016-0.75-0.366-2.314,0.128-3.083c0.736-0.326,2.019-0.278,2.701,0.127c0.06,0.779,0.188,1.719,0,2.57
		c0.916,0.529,3.81,1.114,1.575,2.894c-0.216,0.125-0.345,0.18-0.678,0.191c-0.636,0.068-1.131,0.599-0.769,1.285
		c4.281-0.206,4.828,1.956,3.857,2.699c-0.491,0.378-1.202,0.622-2.057,1.028c-0.747,0.356-1.374,0.226-1.544,1.029
		c0.238,0.661,0.64,1.158,1.029,1.67c2.124-0.187,5.072-0.57,4.756,2.058c-1.238,1.037-2.616,1.927-4.885,1.929
		c-0.201,0.312-0.232,0.797-0.516,1.026c0.485,0.503,1.112,0.859,1.415,1.544c0.15,0.611-0.388,0.962-0.128,1.285
		c1.947-0.203,7.73-1.059,6.17,2.701c-0.39,0.21-0.822,0.376-1.415,0.386c-0.437,2.048-1.619,3.347-4.241,3.213
		c0.075,0.551-0.209,1.266-0.641,1.671c-0.048,0.688,0.356,0.928,0.512,1.415c5.526,0.343,12.75,0.101,17.354,1.798
		c0.092,0.527,0.201,2.255,0.139,2.86c-0.083,0.774-0.412,0.549-0.957,0.797c-0.957-0.739,0.359-1.813,0.174-3.014
		c-4.956-1.711-11.337-1.214-17.351-1.801c-0.173-0.919-0.704-1.244-0.643-2.056c0.073-1.036,1.033-1.152,0.257-2.314
		c2.859,0.118,4.585-0.899,4.884-3.342c0.315-0.347,0.919,0.268,1.283-0.129c0.701-1.899-0.89-1.236-2.184-1.285
		c-0.318-0.011-0.829-0.356-1.156-0.385c-0.952-0.088-1.786,0.446-2.186,0.385c-0.515-0.075-0.765-0.766-1.159-0.64
		c-0.024-0.627,0.527-0.674,0.517-1.285c-0.218-0.815-1.141-0.917-1.544-1.544c0.271-0.773,0.375-1.258,0.387-2.058
		c2.413,0.144,4.109-0.431,5.141-1.67c-0.5-1.451-2.882-0.775-4.112-0.645c-0.861-0.509-1.15-1.591-1.801-2.313
		c0.2-0.567,0.512-1.029,0.644-1.67c1.429-0.071,2.134-0.865,3.083-1.414c-0.32-1.222-2.05-1.034-3.598-1.029
		c-0.428-0.97-0.453-2.043,0.129-2.828c1.061,0.121,1.5-0.385,2.186-0.641c-0.029-1.19-1.92-0.806-2.444-0.771
		c-0.581-0.796-0.247-2.205-0.128-3.085c-0.616-0.245-0.762-0.292-1.414,0c-0.085,0.678,0.078,1.812,0,2.828
		c-0.84,0.74-2.026-0.257-2.827,0.643c0.598,0.514,1.186,1.041,2.313,1.027c0.006,1.045,0.524,0.792,0.386,1.801
		c-0.304,2.195-3.13,0.223-3.857,1.929c1.239,1.081,3.885,1.439,3.471,3.341c-0.201,0.917-1.058,0.606-1.03,1.929
		c-1.524,0.365-4.164-0.793-5.141,0.513c0.851,1.639,3.123,2.083,5.271,2.056c-0.482,0.912,0.219,1.305,0.126,1.929
		c-0.151,0.875-1.135,0.92-1.541,1.543c0.2,0.505,0.785,0.949,0.385,1.671c-1.939,0.046-3.941-0.093-6.428,0.129
		c-0.346,0.166-0.391,0.638-0.386,1.155c0.096,0.637,1.223,0.235,1.673,0.515c0.093,1.277,0.451,2.289,1.027,3.083
		c0.966,0.235,2.351,0.052,3.341,0.259c-0.414,0.805,0.423,1.444,0.387,2.185c-0.043,0.863-1.095,1.238-1.029,2.313
		c-5.656-0.246-11.831,0.074-16.84,0.9c-0.239,1.653,0.917,1.956,0.607,3.969c-1.392-0.158-1.175-0.449-0.993-1.526
		c-0.391-0.636-0.455-1.603-0.385-2.7c4.287-1.801,11.04-1.248,16.839-1.543c0.416-0.356,0.64-0.899,1.028-1.284
		c-0.201-0.57-0.513-1.032-0.643-1.671c-2.814,0.415-3.775-1.027-3.987-3.213c-0.479-0.208-1.243-0.127-1.541-0.514
		c-0.564-0.886-0.117-2.243,0.513-2.703c1.053-0.373,2.279,0.042,3.343,0c0.993-0.035,1.973-0.662,2.571,0c0.042,0,0.083,0,0.127,0
		c0.214-0.178-0.599-0.418-0.385-1.026c0.265-0.804,1.016-1.126,1.54-1.672c-0.041-0.47-0.506-0.517-0.383-1.156
		c-0.933,0.003-2.008,0.003-2.829-0.385c-0.614-0.291-1.901-1.19-2.056-1.544c-1.005-2.308,2.295-2.35,4.755-2.058
		c0.589-0.31,1.662-1.176,1.156-1.562C72.7,58.511,71.854,57.89,71.443,57.552z"/>
	<g>
		<path fill="#795015" d="M73.102,87.979c0,0.25-0.231,0.375-0.689,0.375c-0.363,0-1.224-0.169-2.584-0.504
			c-0.635,0.362-0.952,0.817-0.952,1.368c0,0.265,0.091,0.447,0.274,0.548c0.266-0.022,0.466-0.034,0.6-0.034
			c0.389,0,0.583,0.047,0.583,0.14c0,0.06-0.103,0.09-0.308,0.09c-0.262,0-0.546-0.036-0.854-0.111
			c-0.415,0.059-0.897,0.219-1.446,0.481c-1.4,0.668-2.099,1.536-2.099,2.601c0,0.707,0.38,1.155,1.143,1.345
			c-0.138-0.228-0.208-0.49-0.208-0.791c0-0.735,0.377-1.413,1.128-2.034c0.752-0.62,1.576-0.93,2.469-0.93
			c0.412,0,0.739,0.101,0.983,0.303c0.242,0.201,0.364,0.472,0.364,0.812c0,0.73-0.399,1.386-1.2,1.97
			c-0.801,0.586-1.702,0.877-2.706,0.877c-0.201,0-0.39-0.01-0.567-0.033c0.36,0.482,0.894,0.723,1.601,0.723
			c0.439,0,0.797-0.065,1.073-0.196l0.067-0.011c0.022,0.008,0.034,0.022,0.034,0.045c0,0.052-0.139,0.106-0.416,0.165
			c-0.276,0.058-0.529,0.088-0.759,0.088c-0.781,0-1.378-0.284-1.791-0.846c-0.569-0.128-1.015-0.344-1.337-0.648
			c-0.323-0.304-0.484-0.659-0.484-1.062c0-0.541,0.225-1.048,0.673-1.521c0.448-0.473,1.046-0.831,1.793-1.073
			c0.452-0.149,0.968-0.258,1.552-0.325c-0.415-0.176-0.622-0.454-0.622-0.835c0-0.489,0.302-0.899,0.908-1.228
			c-0.867-0.209-1.583-0.313-2.147-0.313c-1.106,0-2.049,0.276-2.828,0.83c-0.779,0.553-1.169,1.222-1.169,2.006
			c0,0.352,0.104,0.652,0.31,0.902c0.206,0.25,0.452,0.375,0.74,0.375c0.198,0,0.297-0.032,0.297-0.096
			c0-0.033-0.036-0.043-0.106-0.033c-0.198,0-0.297-0.091-0.297-0.274c0-0.104,0.044-0.194,0.131-0.27
			c0.088-0.074,0.193-0.112,0.316-0.112c0.239,0,0.359,0.116,0.359,0.348c0,0.153-0.068,0.284-0.205,0.389
			c-0.137,0.108-0.302,0.16-0.496,0.16c-0.348,0-0.644-0.155-0.889-0.467c-0.245-0.312-0.368-0.689-0.368-1.13
			c0-0.661,0.288-1.268,0.863-1.821c0.684-0.657,1.645-0.986,2.88-0.986c0.688,0,1.604,0.141,2.747,0.42
			c0.514-0.25,1.114-0.375,1.798-0.375c0.508,0,0.94,0.067,1.301,0.203C72.921,87.618,73.102,87.784,73.102,87.979z M71.402,91.594
			c0-0.269-0.105-0.492-0.319-0.667c-0.213-0.175-0.483-0.264-0.808-0.264c-0.805,0-1.59,0.334-2.357,1.002
			c-0.767,0.666-1.15,1.347-1.15,2.042c0,0.201,0.062,0.406,0.185,0.616c0.217,0.041,0.417,0.061,0.601,0.061
			c0.883,0,1.745-0.304,2.586-0.916C70.982,92.857,71.402,92.232,71.402,91.594z M72.982,87.967c0-0.146-0.153-0.274-0.461-0.386
			c-0.309-0.113-0.662-0.168-1.062-0.168c-0.55,0-1.05,0.119-1.502,0.359c0.99,0.321,1.824,0.482,2.499,0.482
			C72.808,88.253,72.982,88.158,72.982,87.967z"/>
	</g>
	<g>
		<path fill="#795015" d="M75.898,90.866c0,0.334-0.107,0.618-0.322,0.852c-0.215,0.234-0.475,0.35-0.779,0.35
			c-0.122,0-0.266-0.031-0.434-0.093c-0.298,0.196-0.626,0.294-0.986,0.294c-0.299,0-0.567-0.068-0.805-0.205
			c-0.238-0.135-0.412-0.318-0.521-0.547c-0.254-0.086-0.453-0.225-0.598-0.413c-0.144-0.19-0.216-0.411-0.216-0.662
			c0-0.444,0.199-0.818,0.596-1.124c0.398-0.304,0.885-0.458,1.462-0.458c0.323,0,0.648,0.051,0.975,0.151
			c0.144-0.167,0.291-0.306,0.441-0.42c0.15-0.113,0.264-0.169,0.341-0.169c0.067,0,0.1,0.031,0.1,0.095
			c0,0.111-0.191,0.314-0.573,0.612c0.403,0.18,0.724,0.427,0.96,0.741C75.78,90.184,75.898,90.518,75.898,90.866z M74.236,89.05
			c-0.271-0.085-0.538-0.127-0.805-0.127c-0.533,0-1.005,0.167-1.414,0.498c-0.408,0.333-0.611,0.716-0.611,1.148
			c0,0.411,0.204,0.7,0.611,0.869c-0.043-0.118-0.065-0.234-0.065-0.35c0-0.455,0.289-0.847,0.866-1.173
			c0.153-0.087,0.54-0.249,1.166-0.485C74.047,89.323,74.131,89.197,74.236,89.05z M73.933,89.53
			c-0.068,0.033-0.17,0.085-0.304,0.153c-0.944,0.476-1.417,1.019-1.417,1.626c0,0.056,0.007,0.12,0.023,0.194
			c0.116,0.012,0.193,0.017,0.234,0.017c0.125,0,0.263-0.02,0.413-0.06c-0.059-0.109-0.088-0.218-0.088-0.325
			c0-0.226,0.085-0.437,0.256-0.635c0.171-0.197,0.391-0.339,0.661-0.427C73.754,89.928,73.829,89.746,73.933,89.53z M74.207,91.9
			c-0.099-0.06-0.169-0.116-0.211-0.165c-0.146,0.066-0.289,0.099-0.424,0.099c-0.271,0-0.49-0.108-0.655-0.325
			c-0.164,0.045-0.31,0.068-0.442,0.068c-0.059,0-0.132-0.005-0.221-0.018c0.076,0.192,0.212,0.348,0.408,0.465
			c0.198,0.118,0.417,0.176,0.66,0.176C73.611,92.202,73.906,92.102,74.207,91.9z M73.693,90.137
			c-0.226,0.101-0.408,0.244-0.549,0.433c-0.141,0.188-0.211,0.385-0.211,0.59c0,0.087,0.019,0.176,0.055,0.269
			c0.233-0.077,0.445-0.193,0.635-0.346c-0.023-0.117-0.034-0.219-0.034-0.309C73.589,90.586,73.624,90.374,73.693,90.137z
			 M73.956,91.701c-0.162-0.179-0.269-0.368-0.322-0.565c-0.196,0.148-0.401,0.262-0.619,0.342c0.113,0.203,0.312,0.305,0.596,0.305
			C73.721,91.784,73.836,91.756,73.956,91.701z M74.408,90.097c-0.105-0.027-0.205-0.041-0.3-0.041
			c-0.091,0-0.189,0.014-0.292,0.041c-0.055,0.2-0.083,0.437-0.083,0.71c0,0.066,0.003,0.124,0.006,0.174
			C74.028,90.718,74.252,90.422,74.408,90.097z M74.908,90.809c0-0.318-0.146-0.548-0.438-0.69
			c-0.183,0.359-0.424,0.667-0.724,0.928c0.025,0.243,0.114,0.452,0.268,0.625c0.256-0.159,0.388-0.344,0.394-0.557
			c0-0.054,0.018-0.081,0.057-0.081c0.042,0,0.065,0.023,0.065,0.068c0,0.083-0.05,0.187-0.147,0.311s-0.206,0.223-0.327,0.294
			c0.027,0.028,0.084,0.074,0.169,0.139l0.029,0.021c0.199-0.151,0.357-0.321,0.476-0.511S74.908,90.983,74.908,90.809z
			 M75.759,90.749c0-0.334-0.105-0.639-0.318-0.915c-0.212-0.275-0.515-0.5-0.906-0.672c-0.133,0.097-0.298,0.201-0.496,0.311
			c-0.085,0.167-0.156,0.356-0.211,0.565c0.108-0.019,0.2-0.029,0.28-0.029c0.112,0,0.219,0.017,0.317,0.048
			c0.072-0.146,0.119-0.285,0.14-0.416c0.008-0.054,0.025-0.081,0.052-0.081c0.025,0,0.037,0.015,0.037,0.045
			c0,0.086-0.054,0.244-0.16,0.475c0.342,0.148,0.514,0.415,0.514,0.804c0,0.414-0.196,0.766-0.59,1.056
			c0.102,0.041,0.204,0.059,0.307,0.059c0.285,0,0.526-0.122,0.73-0.368C75.659,91.385,75.759,91.091,75.759,90.749z M74.476,89.139
			c-0.064-0.022-0.123-0.043-0.18-0.062c-0.077,0.091-0.148,0.192-0.216,0.307C74.18,89.335,74.312,89.253,74.476,89.139z
			 M75.099,88.517c0-0.031-0.016-0.047-0.046-0.047c-0.061,0-0.164,0.057-0.308,0.169c-0.146,0.111-0.285,0.242-0.415,0.389
			l0.023,0.013l0.059,0.017l0.075,0.037l0.038,0.011c0.147-0.103,0.281-0.214,0.398-0.334C75.04,88.65,75.099,88.565,75.099,88.517z
			"/>
	</g>
	<g>
		<path fill="#795015" d="M86.703,88.899c0,0.058-0.034,0.087-0.103,0.087c-0.029,0-0.138-0.019-0.326-0.058
			c-0.348-0.071-0.636-0.107-0.868-0.107c-0.523,0.16-0.985,0.468-1.386,0.927c-0.402,0.458-0.86,1.2-1.373,2.228
			c-0.787,1.576-1.793,2.507-3.021,2.792c0.257,0.039,0.479,0.059,0.667,0.059c0.599,0,1.101-0.191,1.509-0.577
			c0.392-0.37,0.72-0.765,0.979-1.182c0.029-0.045,0.053-0.068,0.068-0.068c0.02,0,0.03,0.007,0.034,0.021
			c0,0.047-0.186,0.3-0.561,0.755c-0.348,0.427-0.666,0.72-0.951,0.881c-0.287,0.162-0.636,0.242-1.048,0.242
			c-0.238,0-0.529-0.035-0.869-0.104c-0.208,0.068-0.447,0.104-0.717,0.104c-0.188,0-0.283-0.035-0.283-0.104
			c0-0.077,0.127-0.116,0.38-0.116c0.179,0,0.385,0.017,0.62,0.047c0.503-0.12,0.884-0.317,1.143-0.594s0.755-1.024,1.493-2.242
			h-1.876c-0.797,0.838-1.412,1.435-1.848,1.789c-1.017,0.826-1.976,1.237-2.876,1.237c-0.513,0-0.95-0.12-1.308-0.36
			c-0.36-0.24-0.539-0.533-0.539-0.877c0-0.179,0.054-0.331,0.164-0.458c0.108-0.127,0.241-0.19,0.397-0.19
			c0.211,0,0.315,0.103,0.315,0.308c0,0.107-0.035,0.198-0.109,0.275c-0.072,0.077-0.157,0.115-0.253,0.115
			c-0.152,0-0.228-0.073-0.228-0.219l0.009-0.097c0.006-0.014,0.01-0.031,0.01-0.054c0-0.032-0.014-0.049-0.044-0.049
			c-0.032,0-0.064,0.042-0.097,0.122c-0.031,0.081-0.047,0.164-0.047,0.249c0,0.319,0.167,0.587,0.501,0.807
			c0.335,0.219,0.744,0.329,1.232,0.329c0.698,0,1.466-0.344,2.304-1.029c0.191-0.153,0.404-0.354,0.638-0.604
			c0.464-0.488,0.835-0.869,1.11-1.142l0.146-0.151h-0.946l0.059-0.088c0.312,0,0.632,0.003,0.96,0.01
			c0.952-1.06,1.876-1.833,2.771-2.324c0.895-0.489,1.843-0.737,2.839-0.743c0.232-0.045,0.448-0.068,0.649-0.068
			C86.478,88.68,86.703,88.753,86.703,88.899z M81.484,89.784c0,0.037-0.059,0.122-0.18,0.26c-0.332,0.381-0.646,0.571-0.941,0.571
			c-0.188,0-0.342-0.066-0.461-0.197c-0.118-0.132-0.178-0.304-0.178-0.519c0-0.182,0.106-0.476,0.322-0.883
			c0.099-0.188,0.151-0.345,0.151-0.468c0-0.162-0.09-0.301-0.271-0.417c-0.18-0.115-0.4-0.173-0.66-0.173
			c-0.744,0-1.434,0.286-2.069,0.858s-0.953,1.192-0.953,1.856c0,0.339,0.105,0.614,0.32,0.83c0.213,0.215,0.488,0.322,0.826,0.322
			c0.368,0,0.738-0.133,1.111-0.402c0.371-0.268,0.635-0.59,0.787-0.967c0.009-0.032,0.023-0.049,0.04-0.049
			c0.029,0,0.043,0.017,0.043,0.049c0,0.067-0.057,0.189-0.171,0.363c-0.113,0.174-0.23,0.319-0.351,0.437
			c-0.439,0.431-0.931,0.647-1.479,0.647c-0.372,0-0.668-0.114-0.893-0.341c-0.225-0.227-0.336-0.53-0.336-0.907
			c0-0.685,0.33-1.32,0.992-1.906c0.661-0.584,1.379-0.877,2.152-0.877c0.341,0,0.608,0.085,0.802,0.253
			c0.192,0.169,0.29,0.401,0.29,0.697c0,0.221-0.078,0.483-0.234,0.785c-0.14,0.276-0.21,0.463-0.21,0.561
			c0,0.241,0.143,0.361,0.429,0.361c0.326,0,0.663-0.242,1.011-0.724c0.029-0.04,0.054-0.058,0.074-0.058
			C81.473,89.746,81.484,89.758,81.484,89.784z M85.157,88.841c-0.848,0.042-1.635,0.286-2.359,0.73
			c-0.723,0.446-1.56,1.193-2.505,2.243h1.847c0.416-0.725,0.917-1.375,1.506-1.95C84.225,89.292,84.729,88.951,85.157,88.841z"/>
	</g>
</g>
</svg>
